<svg width="21" height="19" viewBox="0 0 21 19" fill="none" xmlns="http://www.w3.org/2000/svg">
<path d="M13.8143 17.7924V15.7797H6.80658V17.7924H4.99493V19H15.6156V17.7924H13.8143Z" fill="#08152D"/>
<path d="M0 0V14.5721H1.20765H19.403H20.6106V0H0ZM9.219 5.7424H7.79191V10.0189H6.58425V5.7424H5.15721V4.53474H9.219V5.7424ZM12.9415 10.1303L10.4295 4.97034L11.5154 4.44175L12.9415 7.37124L14.3676 4.44175L15.4534 4.97034L12.9415 10.1303Z" fill="#08152D"/>
</svg>
