<?xml version="1.0" encoding="utf-8"?>
<!-- Generator: Adobe Illustrator 16.0.0, SVG Export Plug-In . SVG Version: 6.00 Build 0)  -->
<!DOCTYPE svg PUBLIC "-//W3C//DTD SVG 1.1//EN" "http://www.w3.org/Graphics/SVG/1.1/DTD/svg11.dtd">
<svg version="1.1" id="Layer_1" xmlns="http://www.w3.org/2000/svg" xmlns:xlink="http://www.w3.org/1999/xlink" x="0px" y="0px"
	 width="100px" height="100px" viewBox="0 0 100 100" enable-background="new 0 0 100 100" xml:space="preserve">
<g>
	<g>
		<defs>
			<polyline id="SVGID_1_" points="82.412,68.058 50.38,77.397 18.017,68.038 24.656,40.742 75.772,40.742 82.412,68.058 			"/>
		</defs>
		<clipPath id="SVGID_2_">
			<use xlink:href="#SVGID_1_"  overflow="visible"/>
		</clipPath>
		<g clip-path="url(#SVGID_2_)">
			<defs>
				<rect id="SVGID_3_" x="-774.737" y="-2029.308" width="1490.913" height="2942.067"/>
			</defs>
			<clipPath id="SVGID_4_">
				<use xlink:href="#SVGID_3_"  overflow="visible"/>
			</clipPath>
			<rect x="8.078" y="30.803" clip-path="url(#SVGID_4_)" fill="#333333" width="84.274" height="56.534"/>
		</g>
	</g>
	<g>
		<defs>
			<polyline id="SVGID_5_" points="82.406,68.058 75.772,40.742 61.822,40.742 61.822,74.111 82.406,68.058 			"/>
		</defs>
		<clipPath id="SVGID_6_">
			<use xlink:href="#SVGID_5_"  overflow="visible"/>
		</clipPath>
		<g clip-path="url(#SVGID_6_)">
			<defs>
				<rect id="SVGID_7_" x="-774.737" y="-2029.308" width="1490.913" height="2942.067"/>
			</defs>
			<clipPath id="SVGID_8_">
				<use xlink:href="#SVGID_7_"  overflow="visible"/>
			</clipPath>
			<rect x="51.883" y="30.803" clip-path="url(#SVGID_8_)" fill="#4D4D4D" width="40.463" height="53.247"/>
		</g>
	</g>
	<g>
		<defs>
			<polyline id="SVGID_9_" points="99.45,33.59 49.994,22.603 0.538,33.59 0.538,38.24 49.994,53.213 99.462,38.24 99.45,33.59 			
				"/>
		</defs>
		<clipPath id="SVGID_10_">
			<use xlink:href="#SVGID_9_"  overflow="visible"/>
		</clipPath>
		<g clip-path="url(#SVGID_10_)">
			<defs>
				<rect id="SVGID_11_" x="-774.737" y="-2029.308" width="1490.913" height="2942.067"/>
			</defs>
			<clipPath id="SVGID_12_">
				<use xlink:href="#SVGID_11_"  overflow="visible"/>
			</clipPath>
			<rect x="-9.401" y="12.663" clip-path="url(#SVGID_12_)" fill="#333333" width="118.803" height="50.489"/>
		</g>
	</g>
	<g>
		<defs>
			<polyline id="SVGID_13_" points="49.969,48.563 0.757,33.59 49.969,22.603 99.45,33.59 49.969,48.563 			"/>
		</defs>
		<clipPath id="SVGID_14_">
			<use xlink:href="#SVGID_13_"  overflow="visible"/>
		</clipPath>
		<g clip-path="url(#SVGID_14_)">
			<defs>
				<rect id="SVGID_15_" x="-774.737" y="-2029.308" width="1490.913" height="2942.067"/>
			</defs>
			<clipPath id="SVGID_16_">
				<use xlink:href="#SVGID_15_"  overflow="visible"/>
			</clipPath>
			<rect x="-9.182" y="12.663" clip-path="url(#SVGID_16_)" fill="#4D4D4D" width="118.572" height="45.84"/>
		</g>
	</g>
	<g>
		<defs>
			<path id="SVGID_17_" d="M91.357,35.964c-0.094,0.542-0.609,0.905-1.151,0.81l-41.157-0.419c-0.542-0.093-0.905-0.609-0.81-1.153
				c0.093-0.542,0.609-0.905,1.151-0.81l41.157,0.419C91.09,34.906,91.452,35.421,91.357,35.964"/>
		</defs>
		<clipPath id="SVGID_18_">
			<use xlink:href="#SVGID_17_"  overflow="visible"/>
		</clipPath>
		<g clip-path="url(#SVGID_18_)">
			<defs>
				<rect id="SVGID_19_" x="-774.737" y="-2029.308" width="1490.913" height="2942.067"/>
			</defs>
			<clipPath id="SVGID_20_">
				<use xlink:href="#SVGID_19_"  overflow="visible"/>
			</clipPath>
			<rect x="38.284" y="24.437" clip-path="url(#SVGID_20_)" fill="#FFDD92" width="63.028" height="22.292"/>
		</g>
	</g>
	<g>
		<defs>
			<path id="SVGID_21_" d="M91.691,47.991c0,0.549-0.446,0.996-0.996,0.996h-0.068c-0.549,0-0.995-0.447-0.995-0.996V35.553
				c0-0.549,0.446-0.996,0.995-0.996h0.068c0.55,0,0.996,0.446,0.996,0.996V47.991"/>
		</defs>
		<clipPath id="SVGID_22_">
			<use xlink:href="#SVGID_21_"  overflow="visible"/>
		</clipPath>
		<g clip-path="url(#SVGID_22_)">
			<defs>
				<rect id="SVGID_23_" x="-774.737" y="-2029.308" width="1490.913" height="2942.067"/>
			</defs>
			<clipPath id="SVGID_24_">
				<use xlink:href="#SVGID_23_"  overflow="visible"/>
			</clipPath>
			<rect x="79.692" y="24.618" clip-path="url(#SVGID_24_)" fill="#FFDD92" width="21.938" height="34.308"/>
		</g>
	</g>
	<g>
		<defs>
			<path id="SVGID_25_" d="M94.203,50.464c0,1.883-1.525,3.411-3.409,3.411c-1.883,0-3.408-1.528-3.408-3.411
				c0-1.885,1.525-3.413,3.408-3.413C92.678,47.051,94.203,48.579,94.203,50.464"/>
		</defs>
		<clipPath id="SVGID_26_">
			<use xlink:href="#SVGID_25_"  overflow="visible"/>
		</clipPath>
		<g clip-path="url(#SVGID_26_)">
			<defs>
				<rect id="SVGID_27_" x="-774.737" y="-2029.308" width="1490.913" height="2942.067"/>
			</defs>
			<clipPath id="SVGID_28_">
				<use xlink:href="#SVGID_27_"  overflow="visible"/>
			</clipPath>
			<rect x="77.446" y="37.112" clip-path="url(#SVGID_28_)" fill="#FFDD92" width="26.696" height="26.703"/>
		</g>
	</g>
	<g>
		<defs>
			<path id="SVGID_29_" d="M95.272,70.881c0,0.7-0.566,1.299-1.268,1.299h-6.342c-0.701,0-1.27-0.599-1.27-1.299l1.27-13.368
				c0-0.701,0.568-1.311,1.268-1.311h3.805c0.703,0,1.27,0.609,1.27,1.311L95.272,70.881"/>
		</defs>
		<clipPath id="SVGID_30_">
			<use xlink:href="#SVGID_29_"  overflow="visible"/>
		</clipPath>
		<g clip-path="url(#SVGID_30_)">
			<defs>
				<rect id="SVGID_31_" x="-774.737" y="-2029.308" width="1490.913" height="2942.067"/>
			</defs>
			<clipPath id="SVGID_32_">
				<use xlink:href="#SVGID_31_"  overflow="visible"/>
			</clipPath>
			<rect x="76.454" y="46.263" clip-path="url(#SVGID_32_)" fill="#FFDD92" width="28.758" height="35.856"/>
		</g>
	</g>
	<g>
		<defs>
			<path id="SVGID_33_" d="M93.751,55.449c0,0.701-0.569,1.268-1.271,1.268h-3.636c-0.703,0-1.271-0.566-1.271-1.268v-2.101
				c0-0.701,0.568-1.27,1.271-1.27h3.636c0.702,0,1.271,0.568,1.271,1.27V55.449"/>
		</defs>
		<clipPath id="SVGID_34_">
			<use xlink:href="#SVGID_33_"  overflow="visible"/>
		</clipPath>
		<g clip-path="url(#SVGID_34_)">
			<defs>
				<rect id="SVGID_35_" x="-774.737" y="-2029.308" width="1490.913" height="2942.067"/>
			</defs>
			<clipPath id="SVGID_36_">
				<use xlink:href="#SVGID_35_"  overflow="visible"/>
			</clipPath>
			<rect x="77.633" y="42.14" clip-path="url(#SVGID_36_)" fill="#966E4D" width="26.058" height="24.517"/>
		</g>
	</g>
	<g>
		<defs>
			<path id="SVGID_37_" d="M56.445,35.25c0,1.254-2.825,2.271-6.308,2.271s-6.307-1.018-6.307-2.271c0-1.252,2.825-2.27,6.307-2.27
				S56.445,33.998,56.445,35.25"/>
		</defs>
		<clipPath id="SVGID_38_">
			<use xlink:href="#SVGID_37_"  overflow="visible"/>
		</clipPath>
		<g clip-path="url(#SVGID_38_)">
			<defs>
				<rect id="SVGID_39_" x="-774.737" y="-2029.308" width="1490.913" height="2942.067"/>
			</defs>
			<clipPath id="SVGID_40_">
				<use xlink:href="#SVGID_39_"  overflow="visible"/>
			</clipPath>
			<rect x="33.891" y="23.042" clip-path="url(#SVGID_40_)" fill="#966E4D" width="32.494" height="24.419"/>
		</g>
	</g>
</g>
</svg>
