<svg width="205" height="59" viewBox="0 0 205 59" fill="none" xmlns="http://www.w3.org/2000/svg">
<path d="M0 0.294662C0.232984 0.146855 0.458452 0.0867299 0.701456 0.0817195C5.15821 -0.0159833 9.61496 -0.013478 14.0742 0.0241C16.2262 0.0416364 18.3756 0.0666884 20.5251 0.166896C20.6228 0.171907 20.7205 0.184432 20.8182 0.191948C21.3293 0.229526 21.3944 0.297166 21.3969 0.823258C21.3994 2.35644 21.3969 3.88712 21.3969 5.4203C21.3969 19.9054 21.3969 34.3879 21.4044 48.873C21.4044 49.1861 21.3167 49.3815 21.0687 49.5795C17.6541 52.3226 14.2521 55.0784 10.8425 57.8266C10.4191 58.1673 9.97571 58.4804 9.53229 58.7936C9.29429 58.9614 9.11392 58.8813 9.08886 58.5856C9.0563 58.1973 9.04126 57.8065 9.04126 57.4157C9.03876 45.3557 9.04127 33.2931 9.03876 21.2331C9.03876 17.082 9.02874 12.9309 9.03375 8.78228C9.03375 8.42904 8.93605 8.18103 8.66047 7.94053C5.86467 5.49295 3.0814 3.03284 0.295614 0.575244C0.200416 0.485056 0.107724 0.39487 0 0.294662Z" fill="#08152D"/>
<path d="M35.4436 0.0166342C39.3016 0.0166342 42.4982 0.014129 45.6948 0.0166342C46.9775 0.0166342 48.0071 0.748152 48.3403 1.88802C48.4205 2.16108 48.438 2.44167 48.438 2.72475C48.4355 7.68004 48.418 12.6328 48.448 17.5881C48.4581 19.0712 47.5737 20.1985 45.8577 20.3488C45.2289 20.4039 44.5976 20.3839 43.9662 20.3839C41.7366 20.3864 39.507 20.3814 37.2799 20.3864C35.5513 20.3889 33.8227 20.4014 32.0941 20.4014C30.3655 20.4014 28.6369 20.3939 26.9083 20.3814C26.6378 20.3789 26.3672 20.3363 26.0967 20.3313C25.796 20.3288 25.6783 20.166 25.6582 19.8929C25.6482 19.7426 25.6282 19.5898 25.6282 19.4394C25.6257 13.1163 25.6307 6.7932 25.6182 0.470075C25.6182 0.144399 25.7008 0.0592223 26.024 0.0492015C29.3885 -0.0384804 32.748 0.0542121 35.4436 0.0166342Z" fill="#08152D"/>
<path d="M36.2252 25.5671C39.3893 25.5671 42.5533 25.5897 45.7199 25.5571C47.2531 25.5396 48.4706 26.7596 48.4581 28.2752C48.418 33.2631 48.4155 38.2509 48.4631 43.2363C48.4756 44.5165 47.3408 45.8442 45.8377 45.8592C41.9446 45.8968 38.0515 45.8693 34.1609 45.8818C32.0941 45.8893 30.0273 45.8868 27.9631 45.8818C27.3117 45.8793 26.6604 45.8492 26.009 45.8392C25.8136 45.8367 25.7309 45.7841 25.7159 45.5611C25.6683 44.9223 25.6758 44.281 25.6658 43.6396C25.6082 40.458 25.6107 37.2739 25.6207 34.0898C25.6282 31.9604 25.6583 29.8335 25.6858 27.7041C25.6934 27.1078 25.7259 26.5116 25.741 25.9153C25.746 25.7375 25.7885 25.6398 25.994 25.6222C26.232 25.6022 26.4675 25.5671 26.708 25.5671C29.8745 25.5671 33.0486 25.5671 36.2252 25.5671Z" fill="#08152D"/>
<path d="M62.0964 38.4764C64.0806 40.8889 66.0121 43.2438 67.9912 45.6488C67.8384 45.6488 67.7557 45.6488 67.6755 45.6488C66.0772 45.6488 64.4789 45.6463 62.8806 45.6538C62.6852 45.6538 62.5649 45.5912 62.4447 45.4434C60.6083 43.1987 58.7645 40.959 56.9282 38.7144C56.7829 38.5365 56.6376 38.4664 56.4071 38.4714C55.6781 38.4864 54.9491 38.4939 54.2226 38.4689C53.917 38.4589 53.8218 38.5265 53.8243 38.8522C53.8418 40.9916 53.8243 43.1336 53.8418 45.273C53.8443 45.5987 53.7491 45.6613 53.4435 45.6563C52.2811 45.6363 51.1161 45.6438 49.9537 45.6538C49.7433 45.6563 49.6807 45.6037 49.6807 45.3857C49.6857 39.2906 49.6857 33.1954 49.6807 27.1003C49.6807 26.8247 49.8235 26.6519 49.9988 26.4915C50.4122 26.1132 50.9232 25.9629 51.4669 25.9629C56.3721 25.9579 61.2747 25.9579 66.1799 25.9629C66.7611 25.9629 67.2922 26.1308 67.7256 26.5466C67.9085 26.7245 67.9962 26.9274 67.9962 27.183C67.9937 30.5399 67.9912 33.8969 67.9987 37.2539C67.9987 37.6146 67.8133 37.8426 67.5553 38.038C67.1419 38.3536 66.6609 38.4714 66.1498 38.4739C64.9323 38.4789 63.7148 38.4764 62.4973 38.4764C62.3845 38.4764 62.2793 38.4764 62.0964 38.4764Z" fill="#08152D"/>
<path d="M139.945 38.4764C141.927 40.8889 143.861 43.2413 145.8 45.6012C145.695 45.6763 145.607 45.6488 145.525 45.6488C143.926 45.6513 142.328 45.6463 140.73 45.6538C140.537 45.6538 140.414 45.5937 140.294 45.4459C138.457 43.2012 136.614 40.9616 134.777 38.7169C134.632 38.5415 134.487 38.4689 134.256 38.4739C133.517 38.4889 132.776 38.4989 132.039 38.4714C131.723 38.4589 131.673 38.5741 131.676 38.8522C131.686 41.0041 131.676 43.1536 131.688 45.3056C131.691 45.6012 131.606 45.6613 131.325 45.6563C130.15 45.6388 128.975 45.6438 127.803 45.6538C127.595 45.6563 127.527 45.6062 127.527 45.3882C127.532 39.2931 127.535 33.1979 127.527 27.1028C127.527 26.8272 127.67 26.6544 127.845 26.494C128.259 26.1157 128.77 25.9654 129.313 25.9629C134.219 25.9579 139.121 25.9579 144.026 25.9629C144.608 25.9629 145.139 26.1283 145.572 26.5466C145.755 26.722 145.843 26.9274 145.843 27.183C145.84 30.5399 145.838 33.8969 145.845 37.2539C145.845 37.6146 145.66 37.8426 145.402 38.0405C144.988 38.3561 144.507 38.4764 143.996 38.4789C142.779 38.4839 141.561 38.4814 140.344 38.4814C140.236 38.4764 140.128 38.4764 139.945 38.4764Z" fill="#08152D"/>
<path d="M108.084 35.8059C108.084 32.9374 108.089 30.069 108.077 27.2005C108.074 26.8824 108.195 26.6644 108.418 26.469C108.841 26.1008 109.349 25.958 109.893 25.958C115.297 25.9529 120.703 25.958 126.107 25.9504C126.337 25.9504 126.397 26.0156 126.395 26.241C126.382 27.2957 126.38 28.3479 126.397 29.4026C126.402 29.6732 126.332 29.7433 126.057 29.7433C121.587 29.7333 117.118 29.7408 112.649 29.7283C112.318 29.7283 112.215 29.7984 112.22 30.1466C112.243 31.527 112.238 32.9074 112.223 34.2852C112.22 34.5959 112.276 34.7011 112.621 34.7011C117.081 34.6861 121.54 34.6961 125.997 34.6836C126.34 34.6836 126.405 34.7788 126.397 35.0969C126.377 36.119 126.38 37.1387 126.395 38.1608C126.4 38.4213 126.32 38.4814 126.069 38.4789C121.59 38.4714 117.108 38.4764 112.629 38.4639C112.301 38.4639 112.213 38.5416 112.22 38.8698C112.245 39.7491 112.24 40.6309 112.223 41.5102C112.218 41.7908 112.281 41.871 112.576 41.871C117.035 41.861 121.495 41.8635 125.951 41.8635C126.017 41.8635 126.082 41.871 126.147 41.8635C126.325 41.8409 126.395 41.8985 126.392 42.0939C126.385 43.2012 126.38 44.3111 126.395 45.4184C126.4 45.6964 126.24 45.6463 126.082 45.6463C123.015 45.6463 119.949 45.6463 116.883 45.6463C114.578 45.6463 112.271 45.6463 109.966 45.6463C109.385 45.6463 108.846 45.5135 108.397 45.1177C108.187 44.9298 108.074 44.7144 108.077 44.4113C108.089 41.5428 108.084 38.6743 108.084 35.8059Z" fill="#08152D"/>
<path d="M146.978 36.2343C146.978 33.2255 146.983 30.2143 146.97 27.2055C146.968 26.8749 147.098 26.6519 147.331 26.4515C147.742 26.1033 148.228 25.9605 148.749 25.9605C153.674 25.9529 158.599 25.9555 163.527 25.9605C163.955 25.9605 164.359 26.1108 164.734 26.3112C165.11 26.5116 165.288 26.8197 165.288 27.2632C165.281 33.2706 165.281 39.2806 165.288 45.2881C165.288 45.5637 165.235 45.6614 164.932 45.6563C163.79 45.6363 162.648 45.6338 161.508 45.6563C161.174 45.6639 161.124 45.5536 161.127 45.2555C161.139 43.1035 161.127 40.9541 161.142 38.8021C161.144 38.524 161.067 38.4689 160.801 38.4689C157.692 38.4789 154.581 38.4789 151.472 38.4689C151.184 38.4689 151.114 38.5391 151.116 38.8247C151.129 40.9641 151.116 43.1061 151.131 45.2455C151.134 45.5762 151.043 45.6614 150.713 45.6563C149.57 45.6338 148.431 45.6388 147.288 45.6538C147.023 45.6588 146.973 45.5737 146.973 45.3282C146.98 42.2969 146.978 39.2656 146.978 36.2343Z" fill="#08152D"/>
<path d="M69.126 35.8034C69.126 32.9349 69.131 30.0664 69.1184 27.198C69.1184 26.8798 69.2387 26.6619 69.4617 26.469C69.8775 26.1082 70.3735 25.9629 70.9072 25.9604C75.8224 25.9554 80.7376 25.9554 85.6528 25.9604C86.1864 25.9604 86.6799 26.1157 87.0958 26.4765C87.3337 26.6819 87.4415 26.9249 87.439 27.2456C87.4264 28.6034 87.434 29.9612 87.434 31.3216C87.434 35.6255 87.4239 39.9269 87.444 44.2308C87.4465 44.797 87.1985 45.1302 86.7475 45.3707C86.3993 45.5586 86.016 45.6488 85.6202 45.6488C80.715 45.6513 75.8123 45.6513 70.9072 45.6463C70.3761 45.6463 69.8775 45.501 69.4617 45.1402C69.2387 44.9473 69.1159 44.7294 69.1184 44.4112C69.131 41.5403 69.126 38.6718 69.126 35.8034Z" fill="#08152D"/>
<path d="M166.423 36.2292C166.423 33.2205 166.428 30.2117 166.415 27.203C166.415 26.8848 166.533 26.6669 166.756 26.4715C167.169 26.1107 167.668 25.9629 168.199 25.9604C173.114 25.9554 178.027 25.9554 182.942 25.9579C183.338 25.9579 183.719 26.0531 184.067 26.2485C184.503 26.4915 184.746 26.8197 184.741 27.3683C184.721 30.6051 184.721 33.8418 184.741 37.081C184.743 37.5996 184.523 37.9202 184.112 38.1607C183.706 38.3962 183.265 38.4789 182.799 38.4764C178.854 38.4739 174.906 38.4789 170.96 38.4689C170.657 38.4689 170.562 38.5265 170.564 38.8522C170.582 41.0041 170.567 43.1536 170.582 45.3056C170.584 45.6037 170.496 45.6613 170.218 45.6563C169.066 45.6413 167.914 45.6413 166.761 45.6563C166.496 45.6588 166.418 45.6012 166.418 45.3231C166.428 42.2893 166.423 39.2605 166.423 36.2292Z" fill="#08152D"/>
<path d="M185.936 36.2318C185.936 33.233 185.941 30.2343 185.928 27.2381C185.926 26.8824 186.059 26.6419 186.317 26.4314C186.725 26.1032 187.201 25.963 187.71 25.963C192.625 25.9579 197.537 25.9579 202.453 25.9604C202.849 25.9604 203.229 26.0556 203.578 26.2485C204.013 26.4915 204.256 26.8172 204.254 27.3684C204.234 30.6051 204.234 33.8418 204.254 37.081C204.256 37.6146 204.023 37.9378 203.598 38.1783C203.199 38.4038 202.766 38.4814 202.315 38.4814C198.379 38.4789 194.444 38.4814 190.508 38.4814C190.085 38.4814 190.085 38.4814 190.085 38.9198C190.085 41.0593 190.08 43.2012 190.09 45.3407C190.092 45.6012 190.017 45.6638 189.764 45.6613C188.611 45.6488 187.459 45.6463 186.307 45.6613C186.024 45.6663 185.926 45.6087 185.928 45.2981C185.941 42.2718 185.936 39.2505 185.936 36.2318Z" fill="#08152D"/>
<path d="M106.944 25.9579C105.739 27.4059 104.587 28.7938 103.432 30.1767C101.936 31.9704 100.438 33.7641 98.9352 35.5503C98.7874 35.7282 98.7599 35.8309 98.9252 36.0263C101.521 39.1252 104.103 42.2317 106.691 45.3381C106.761 45.4208 106.827 45.506 106.894 45.5912C106.829 45.6939 106.731 45.6463 106.656 45.6463C104.85 45.6488 103.046 45.6438 101.24 45.6538C101.03 45.6538 100.904 45.5811 100.777 45.4258C98.9352 43.2137 97.0839 41.0066 95.2451 38.792C95.0647 38.5741 94.8843 38.4614 94.5887 38.4764C94.0902 38.5039 93.5891 38.4989 93.0881 38.4789C92.8376 38.4689 92.78 38.5515 92.78 38.792C92.7875 40.954 92.78 43.116 92.7925 45.278C92.795 45.5711 92.7274 45.6588 92.4217 45.6538C91.2468 45.6337 90.0718 45.6413 88.8994 45.6513C88.694 45.6538 88.6213 45.6087 88.6238 45.3857C88.6289 38.9975 88.6289 32.6092 88.6238 26.2184C88.6238 26.003 88.684 25.9479 88.8969 25.9479C90.0819 25.9579 91.2668 25.9604 92.4518 25.9454C92.7198 25.9429 92.795 26.008 92.7925 26.2836C92.7825 28.9466 92.79 31.6071 92.7775 34.2702C92.775 34.5708 92.8626 34.6359 93.1532 34.6484C93.5491 34.666 93.8021 34.5432 94.0576 34.2326C96.2797 31.5445 98.5244 28.8765 100.757 26.1959C100.902 26.023 101.045 25.9454 101.275 25.9479C103.046 25.9579 104.82 25.9529 106.594 25.9529C106.686 25.9579 106.782 25.9579 106.944 25.9579Z" fill="#08152D"/>
<path d="M58.8296 34.6935C57.2639 34.6935 55.6981 34.6885 54.1349 34.6986C53.8994 34.7011 53.8217 34.651 53.8217 34.3979C53.8342 32.9424 53.8342 31.4869 53.8217 30.0314C53.8192 29.7783 53.8994 29.7307 54.1349 29.7307C57.2664 29.7383 60.3954 29.7383 63.5269 29.7307C63.7623 29.7307 63.84 29.7783 63.8375 30.0314C63.825 31.4869 63.825 32.9424 63.8375 34.3979C63.84 34.651 63.7623 34.6986 63.5243 34.6986C61.9611 34.6885 60.3954 34.6935 58.8296 34.6935Z" fill="#FEFEFE"/>
<path d="M136.666 34.6935C135.1 34.6935 133.535 34.6885 131.971 34.6985C131.753 34.6985 131.673 34.656 131.673 34.418C131.683 32.9524 131.683 31.4869 131.673 30.0188C131.671 29.7859 131.743 29.7332 131.966 29.7332C135.108 29.7408 138.249 29.7408 141.391 29.7332C141.609 29.7332 141.689 29.7758 141.687 30.0138C141.677 31.4794 141.677 32.9449 141.687 34.413C141.689 34.6459 141.619 34.7011 141.393 34.6985C139.818 34.691 138.242 34.6935 136.666 34.6935Z" fill="#FEFEFE"/>
<path d="M156.147 29.7382C157.712 29.7382 159.276 29.7432 160.841 29.7332C161.089 29.7307 161.144 29.7959 161.144 30.0389C161.132 31.4944 161.132 32.9499 161.144 34.4054C161.147 34.6609 161.067 34.701 160.834 34.701C157.705 34.6935 154.573 34.6935 151.444 34.701C151.191 34.701 151.119 34.6384 151.121 34.3804C151.134 32.9349 151.136 31.4919 151.121 30.0464C151.119 29.7733 151.214 29.7332 151.454 29.7332C153.015 29.7432 154.581 29.7382 156.147 29.7382Z" fill="#FEFEFE"/>
<path d="M83.288 35.8008C83.288 37.7223 83.2829 39.6463 83.293 41.5678C83.2955 41.8133 83.2328 41.8709 82.9898 41.8709C79.8583 41.8609 76.7293 41.8634 73.5978 41.8709C73.3498 41.8709 73.2697 41.8183 73.2697 41.5553C73.2797 37.7198 73.2797 33.8869 73.2697 30.0514C73.2697 29.7909 73.3448 29.7332 73.5953 29.7332C76.7268 29.7408 79.8558 29.7408 82.9873 29.7332C83.2278 29.7332 83.2955 29.7859 83.293 30.0339C83.2829 31.9579 83.288 33.8794 83.288 35.8008Z" fill="#FEFEFE"/>
<path d="M175.572 29.7383C177.138 29.7383 178.703 29.7433 180.267 29.7332C180.502 29.7307 180.582 29.7783 180.58 30.0339C180.567 31.4894 180.567 32.9449 180.58 34.4004C180.582 34.6535 180.505 34.7011 180.269 34.7011C177.138 34.6935 174.009 34.6935 170.877 34.7011C170.644 34.7011 170.562 34.656 170.564 34.4029C170.577 32.9474 170.577 31.4919 170.564 30.0364C170.562 29.7833 170.639 29.7332 170.875 29.7357C172.443 29.7433 174.006 29.7383 175.572 29.7383Z" fill="#FEFEFE"/>
<path d="M195.105 34.6935C193.539 34.6935 191.974 34.6885 190.41 34.6985C190.17 34.701 190.075 34.6585 190.077 34.3854C190.092 32.9299 190.09 31.4743 190.08 30.0188C190.077 29.7883 190.147 29.7307 190.37 29.7332C193.512 29.7407 196.653 29.7407 199.795 29.7332C200.01 29.7332 200.095 29.7708 200.093 30.0138C200.08 31.4794 200.083 32.9449 200.093 34.4129C200.095 34.6434 200.028 34.701 199.802 34.701C198.234 34.691 196.668 34.6935 195.105 34.6935Z" fill="#FEFEFE"/>
</svg>
